…
rec_spec <- recipe(mpg ~ ., data = mtcars) %>%
  step_normalize(all_numeric_predictors())

lm_spec <- linear_reg()

wf_spec <- workflow(rec_spec, lm_spec)

wf_fit <- fit(wf_spec, mtcars)
```

You can predict with it like normal.

``` r
predict(wf_fit, mtcars)
#> # A tibble: 32 × 1
#>    .pred
#>    <dbl>
#>  1  22.6
#>  2  22.1
#>  3  26.3
#>  4  21.2
#>  5  17.7
#>  6  20.4
#>  7  14.4
#>  8  22.5
#>  9  24.4
#> 10  18.7
#> # ℹ 22 more rows
```
…
and then “predicting” with it using `predict()` to get the same results

``` r
predict(orbital_obj, as_tibble(mtcars))
#> # A tibble: 32 × 1
#>    .pred
#>    <dbl>
#>  1  22.6
#>  2  22.1
#>  3  26.3
#>  4  21.2
#>  5  17.7
#>  6  20.4
#>  7  14.4
#>  8  22.5
#>  9  24.4
#> 10  18.7
#> # ℹ 22 more rows
```
