…
``` r
predict(orbital_obj, mtcars_sqlite) |>
  collect()
#> # A tibble: 32 × 1
#>    .pred
#>    <dbl>
#>  1  23.0
#>  2  23.0
#>  3  25.1
#>  4  19.0
#>  5  14.8
#>  6  20.3
#>  7  14.8
#>  8  23.6
#>  9  23.8
#> 10  22.7
#> # ℹ 22 more rows
```
…
``` r
predict(orbital_obj, mtcars_spark) |>
  collect()
#> # A tibble: 32 × 1
#>    .pred
#>    <dbl>
#>  1  23.0
#>  2  23.0
#>  3  25.1
#>  4  19.0
#>  5  14.8
#>  6  20.3
#>  7  14.8
#>  8  23.6
#>  9  23.8
#> 10  22.7
#> # ℹ 22 more rows
```
…
``` r
predict(orbital_obj, mtcars_duckdb) |>
  collect()
#> # A tibble: 32 × 1
#>    .pred
#>    <dbl>
#>  1  23.0
#>  2  23.0
#>  3  25.1
#>  4  19.0
#>  5  14.8
#>  6  20.3
#>  7  14.8
#>  8  23.6
#>  9  23.8
#> 10  22.7
#> # ℹ 22 more rows
```
…
``` r
library(arrow)
mtcars_arrow <- as_arrow_table(mtcars)

predict(orbital_obj, mtcars_arrow)
#> Table (query)
#> .pred: double (add_checked(20.090625, multiply_checked(divide(cast(subtract_checked(if_else(is_null(disp, {nan_is_null=true}), 230.721875, disp), 230.721875), {to_type=double, allow_int_overflow=false, allow_time_truncate=false, allow_time_overflow=false, allow_decimal_truncate=false, allow_float_truncate=false, allow_invalid_utf8=false}), cast(123.938693831382, {to_type=double, allow_int_overflow=false, allow_time_truncate=false, allow_time_overflow=false, allow_decimal_truncate=false, allow_float_truncate=false, allow_invalid_utf8=false})), -5.10814813429143)))
#> 
#> See $.data for the source Arrow object
```

``` r
predict(orbital_obj, mtcars_arrow) |>
  collect()
#> # A tibble: 32 × 1
#>    .pred
#>    <dbl>
#>  1  23.0
#>  2  23.0
#>  3  25.1
#>  4  19.0
#>  5  14.8
#>  6  20.3
#>  7  14.8
#>  8  23.6
#>  9  23.8
#> 10  22.7
#> # ℹ 22 more rows
```
