Introduction to orbital • orbital
…
We will be using the Ames housing data:

ames
#> # A tibble: 2,930 × 74
#>    MS_SubClass      MS_Zoning Lot_Frontage Lot_Area Street Alley Lot_Shape
#>  * <fct>            <fct>            <dbl>    <int> <fct>  <fct> <fct>    
#>  1 One_Story_1946_… Resident…          141    31770 Pave   No_A… Slightly…
#>  2 One_Story_1946_… Resident…           80    11622 Pave   No_A… Regular  
#>  3 One_Story_1946_… Resident…           81    14267 Pave   No_A… Slightly…
#>  4 One_Story_1946_… Resident…           93    11160 Pave   No_A… Regular  
#>  5 Two_Story_1946_… Resident…           74    13830 Pave   No_A… Slightly…
#>  6 Two_Story_1946_… Resident…           78     9978 Pave   No_A… Slightly…
#>  7 One_Story_PUD_1… Resident…           41     4920 Pave   No_A… Regular  
#>  8 One_Story_PUD_1… Resident…           43     5005 Pave   No_A… Slightly…
#>  9 One_Story_PUD_1… Resident…           39     5389 Pave   No_A… Slightly…
#> 10 Two_Story_1946_… Resident…           60     7500 Pave   No_A… Regular  
#> # ℹ 2,920 more rows
#> # ℹ 67 more variables: Land_Contour <fct>, Utilities <fct>,
#> #   Lot_Config <fct>, Land_Slope <fct>, Neighborhood <fct>,
#> #   Condition_1 <fct>, Condition_2 <fct>, Bldg_Type <fct>,
#> #   House_Style <fct>, Overall_Cond <fct>, Year_Built <int>,
#> #   Year_Remod_Add <int>, Roof_Style <fct>, Roof_Matl <fct>,
#> #   Exterior_1st <fct>, Exterior_2nd <fct>, Mas_Vnr_Type <fct>, …
…
object.size(orbital_obj)
#> 48768 bytes
object.size(wf_fit)
#> 9638608 bytes

Predicting

Predicting with an orbital object is done using the
predict() function, the same way it is done with workflows
objects.

predict(orbital_obj, ames)
#> # A tibble: 2,930 × 1
#>      .pred
#>      <dbl>
#>  1 241950.
#>  2  89436.
#>  3 150919.
#>  4 258130.
#>  5 199195.
#>  6 189319.
#>  7 211575.
#>  8 166227.
#>  9 232087.
#> 10 188203.
#> # ℹ 2,920 more rows

Notice how it produces the same results as if we were to
predict() on the workflow object.

predict(wf_fit, ames)
#> # A tibble: 2,930 × 1
#>      .pred
#>      <dbl>
#>  1 241950.
#>  2  89436.
#>  3 150919.
#>  4 258130.
#>  5 199195.
#>  6 189319.
#>  7 211575.
#>  8 166227.
#>  9 232087.
#> 10 188203.
#> # ℹ 2,920 more rows
…
