Database deployment • orbital
…
Creating a table

Tables store predictions at a point in time. They’re fast to query
and work well with large datasets or complex models.

table_name <- "mtcars_predictions"
table_sql <- paste("CREATE OR REPLACE TABLE", table_name, "AS", generated_sql)
dbExecute(con, table_sql)
#> [1] 32

tbl(con, table_name) |>
  collect()
#> # A tibble: 32 × 12
#>      mpg   cyl    disp     hp  drat       wt  qsec    vs    am  gear
#>    <dbl> <dbl>   <dbl>  <dbl> <dbl>    <dbl> <dbl> <dbl> <dbl> <dbl>
#>  1  21       6 -0.571  -0.535  3.9  -0.610    16.5     0     1     4
#>  2  21       6 -0.571  -0.535  3.9  -0.350    17.0     0     1     4
#>  3  22.8     4 -0.990  -0.783  3.85 -0.917    18.6     1     1     4
#>  4  21.4     6  0.220  -0.535  3.08 -0.00230  19.4     1     0     3
#>  5  18.7     8  1.04    0.413  3.15  0.228    17.0     0     0     3
#>  6  18.1     6 -0.0462 -0.608  2.76  0.248    20.2     1     0     3
#>  7  14.3     8  1.04    1.43   3.21  0.361    15.8     0     0     3
#>  8  24.4     4 -0.678  -1.24   3.69 -0.0278   20       1     0     4
#>  9  22.8     4 -0.726  -0.754  3.92 -0.0687   22.9     1     0     4
#> 10  19.2     6 -0.509  -0.345  3.92  0.228    18.3     1     0     4
#> # ℹ 22 more rows
#> # ℹ 2 more variables: carb <dbl>, .pred <dbl>
…
Creating a view

Views compute predictions on-the-fly, providing always-fresh results
without needing a refresh job.

view_name <- "mtcars_predictions_view"
view_sql <- paste("CREATE OR REPLACE VIEW", view_name, "AS", generated_sql)
dbExecute(con, view_sql)
#> [1] 0

tbl(con, view_name) |>
  collect()
#> # A tibble: 32 × 12
#>      mpg   cyl    disp     hp  drat       wt  qsec    vs    am  gear
#>    <dbl> <dbl>   <dbl>  <dbl> <dbl>    <dbl> <dbl> <dbl> <dbl> <dbl>
#>  1  21       6 -0.571  -0.535  3.9  -0.610    16.5     0     1     4
#>  2  21       6 -0.571  -0.535  3.9  -0.350    17.0     0     1     4
#>  3  22.8     4 -0.990  -0.783  3.85 -0.917    18.6     1     1     4
#>  4  21.4     6  0.220  -0.535  3.08 -0.00230  19.4     1     0     3
#>  5  18.7     8  1.04    0.413  3.15  0.228    17.0     0     0     3
#>  6  18.1     6 -0.0462 -0.608  2.76  0.248    20.2     1     0     3
#>  7  14.3     8  1.04    1.43   3.21  0.361    15.8     0     0     3
#>  8  24.4     4 -0.678  -1.24   3.69 -0.0278   20       1     0     4
#>  9  22.8     4 -0.726  -0.754  3.92 -0.0687   22.9     1     0     4
#> 10  19.2     6 -0.509  -0.345  3.92  0.228    18.3     1     0     4
#> # ℹ 22 more rows
#> # ℹ 2 more variables: carb <dbl>, .pred <dbl>
…
# Select only ID-like columns and the prediction
predictions_slim <- mtcars_db |>
  mutate(row_id = row_number(), !!!orbital_inline(orbital_obj)) |>
  select(row_id, .pred)

slim_sql <- remote_query(predictions_slim)

table_sql <- paste("CREATE OR REPLACE TABLE mtcars_pred_slim AS", slim_sql)
dbExecute(con, table_sql)
#> [1] 32

tbl(con, "mtcars_pred_slim") |>
  collect()
#> # A tibble: 32 × 2
#>    row_id .pred
#>     <dbl> <dbl>
#>  1      1  23.6
#>  2      2  22.6
#>  3      3  25.3
#>  4      4  21.2
#>  5      5  18.2
#>  6      6  20.5
#>  7      7  15.6
#>  8      8  22.9
#>  9      9  22.0
#> 10     10  20.0
#> # ℹ 22 more rows
…
